{
    "tracks": {
        "href": "https://api.spotify.com/v1/search?query=track%3A%22Easy+On+Me%22artist%3A%22Adele%22&type=track&market=US&offset=0&limit=1",
        "items": [
            {
                "album": {
                    "album_type": "single",
                    "artists": [
                        {
                            "external_urls": {
                                "spotify": "https://open.spotify.com/artist/4dpARuHxo51G3z768sgnrY"
                            },
                            "href": "https://api.spotify.com/v1/artists/4dpARuHxo51G3z768sgnrY",
                            "id": "4dpARuHxo51G3z768sgnrY",
                            "name": "Adele",
                            "type": "artist",
                            "uri": "spotify:artist:4dpARuHxo51G3z768sgnrY"
                        }
                    ],
                    "external_urls": {
                        "spotify": "https://open.spotify.com/album/224jZ4sUX7OhAuMwaxp86S"
                    },
                    "href": "https://api.spotify.com/v1/albums/224jZ4sUX7OhAuMwaxp86S",
                    "id": "224jZ4sUX7OhAuMwaxp86S",
                    "images": [
                        {
                            "height": 640,
                            "url": "https://i.scdn.co/image/ab67616d0000b27350dba34377a595e35f81b0e4",
                            "width": 640
                        },
                        {
                            "height": 300,
                            "url": "https://i.scdn.co/image/ab67616d00001e0250dba34377a595e35f81b0e4",
                            "width": 300
                        },
                        {
                            "height": 64,
                            "url": "https://i.scdn.co/image/ab67616d0000485150dba34377a595e35f81b0e4",
                            "width": 64
                        }
                    ],
                    "name": "Easy On Me",
                    "release_date": "2021-10-14",
                    "release_date_precision": "day",
                    "total_tracks": 1,
                    "type": "album",
                    "uri": "spotify:album:224jZ4sUX7OhAuMwaxp86S"
                },
                "artists": [
                    {
                        "external_urls": {
                            "spotify": "https://open.spotify.com/artist/4dpARuHxo51G3z768sgnrY"
                        },
                        "href": "https://api.spotify.com/v1/artists/4dpARuHxo51G3z768sgnrY",
                        "id": "4dpARuHxo51G3z768sgnrY",
                        "name": "Adele",
                        "type": "artist",
                        "uri": "spotify:artist:4dpARuHxo51G3z768sgnrY"
                    }
                ],
                "disc_number": 1,
                "duration_ms": 224694,
                "explicit": false,
                "external_ids": {
                    "isrc": "USSM12105970"
                },
                "external_urls": {
                    "spotify": "https://open.spotify.com/track/0gplL1WMoJ6iYaPgMCL0gX"
                },
                "href": "https://api.spotify.com/v1/tracks/0gplL1WMoJ6iYaPgMCL0gX",
                "id": "0gplL1WMoJ6iYaPgMCL0gX",
                "is_local": false,
                "is_playable": true,
                "name": "Easy On Me",
                "popularity": 85,
                "preview_url": "https://p.scdn.co/mp3-preview/3ca514309c910bb73a9e3ef8092306900af06fa6?cid=ba0c189dabbb4c4d9ee175011ebb9231",
                "track_number": 1,
                "type": "track",
                "uri": "spotify:track:0gplL1WMoJ6iYaPgMCL0gX"
            }
        ],
        "limit": 1,
        "next": "https://api.spotify.com/v1/search?query=track%3A%22Easy+On+Me%22artist%3A%22Adele%22&type=track&market=US&offset=1&limit=1",
        "offset": 0,
        "previous": null,
        "total": 5
    }
}